{

"name" : "Pulsator",
"category" : "Oscillating",

"height" : "9",
"width" : "16",

"coords" : [
   [4,3], [6,3], [9,3], [11,3],
   [0,4], [1,4], [3,4], [6,4], [9,4], [12,4], [14,4], [15,4],
   [4,5], [6,5], [9,5], [11,5]
]

}